#1749 - Cádiz

owner = HIS
controller = HIS
add_core = HIS
culture = iberi
religion = animism
hre = no
discovered_by = roman_group
discovered_by = eastern
discovered_by = ottoman
discovered_by = middle_eastern
discovered_by = muslim
discovered_by = barbarian
discovered_by = western
base_tax = 2
base_production = 2
trade_goods = naval_supplies
base_manpower = 2
capital = "Gades" 
is_city = yes
center_of_trade = 1

100.1.1 = { religion = hellenism }
300.1.1 = { culture = roman }
310.1.1 = { religion = chalcedonism }
395.1.17 = { controller = ROW owner = ROW add_core = ROW remove_core = ROM } # Final division of the empire
409.1.1 = { owner = VAN controller = VAN add_core = VAN religion = arianism culture = vandal capital = "Gibraltar" }
425.1.1 = { owner = ROW controller = ROW remove_core = VAN }
448.1.1 = { owner = EAL controller = EAL add_core = EAL }
450.1.1 = { remove_core = ROW }
456.1.1 = { owner = GVI controller = GVI add_core = GVI remove_core = EAL culture = gothic }
552.1.1 = { owner = BYZ controller = BYZ add_core = BYZ }
555.1.1 = { religion = chalcedonism }
572.1.1 = { owner = GVI controller = GVI remove_core = BYZ }
600.1.1 = { base_tax = 3 base_production = 3 }
711.1.1 = { owner = UMA controller = UMA add_core = UMA remove_core = GVI capital = "Qadis" }
740.1.1 = { religion = sunni }
750.1.1 = { culture = andalucian }
750.8.6 = { owner = CRD controller = CRD add_core = CRD remove_core = UMA }
800.1.1 = { base_manpower = 3 }
1000.1.1 = { base_tax = 4 base_production = 4 }
1023.1.1 = { owner = AGC controller = AGC add_core = AGC remove_core = CRD }
1058.1.1 = { owner = SEV controller = SEV add_core = SEV }
1091.1.1 = { owner = MOR controller = MOR add_core = MOR remove_core = SEV remove_core = AGC }
1147.1.1 = { owner = MOR controller = MOR add_core = MOR remove_core = MOR }
1200.1.1 = { base_tax = 5 }
1262.1.1 = { owner = CAS controller = CAS add_core = CAS remove_core = MOR remove_core = CRD capital = "Cadiz" }
1320.1.1 = { religion = catholic }

1516.1.23 = {
	controller = SPA
	owner = SPA
	add_core = SPA
} # King Fernando dies, Carlos inherits Aragon and becames co-regent of Castille
1610.1.12 = { culture = castillian } # Decree for the expulsion of the morisques in Andalucía, unlike Valencia, this was performed uneventfully.
1713.4.11 = { remove_core = CAS }
1750.1.1 = { base_tax = 7 }
1775.1.1 = { base_tax = 8 base_production = 5 }
1800.1.1 = { base_tax = 10 }
1808.6.6   = { revolt = { type = pretender_rebels size = 0.5 } controller = REB  }
1813.12.11 = { revolt = {} controller = SPA }

1825.1.1 = { base_tax = 12 base_manpower = 4 }
1851.1.1 = { base_tax = 13 base_manpower = 5 }
1875.1.1 = { base_production = 6 base_manpower = 6 }
1901.1.1 = { base_production = 7 }
1925.1.1 = { base_production = 8 base_manpower = 8 }
1951.1.1 = { base_production = 9 base_manpower = 9 }
1975.1.1 = { base_production = 10 base_manpower = 10 }
2000.1.1 = { base_production = 12 base_manpower = 11 }



