#1751 - Ceuta

owner = HIS
controller = HIS  
culture = berber
religion = shamanism
capital = "Septa"
trade_goods = fish
hre = no
discovered_by = roman_group
discovered_by = eastern
discovered_by = ottoman
discovered_by = middle_eastern
discovered_by = muslim
discovered_by = barbarian
discovered_by = western
base_tax = 2
base_production = 2
base_manpower = 1
is_city = yes
add_core = HIS

320.1.1 = { religion = chalcedonism }
395.1.17 = { controller = ROW owner = ROW add_core = ROW remove_core = ROM } # Final division of the empire
429.1.1 = { owner = VAN controller = VAN add_core = VAN remove_core = ROW }
534.3.1 = { owner = BYZ controller = BYZ add_core = BYZ remove_core = VAN }
710.1.1 = { owner = UMA controller = UMA add_core = UMA remove_core = BYZ capital = "Cebta" }
715.1.1 = { religion = sunni }
740.1.1 = { revolt = { type = nationalist_rebels size = 2 } controller = REB } #Great Berber revolt
743.1.1 = { owner = NEK controller = NEK add_core = NEK remove_core = UMA revolt = {} } #Caliphate loses control of the region
789.1.1 = { owner = MOR controller = MOR add_core = MOR remove_core = NEK }
790.1.1 = { culture = moroccan }
800.1.1 = { base_tax = 3 base_production = 3 }
922.1.1 = { owner = FAT controller = FAT }
925.1.1 = { owner = MOR controller = MOR }
927.1.1 = { owner = FAT controller = FAT }
937.1.1 = { owner = MOR controller = MOR }
974.1.1 = { owner = CRD controller = CRD add_core = CRD remove_core = MOR }
1026.1.1 = { owner = MLG controller = MLG add_core = MLG remove_core = CRD }
1061.1.1 = { owner = BGW controller = BGW add_core = BGW remove_core = MLG }
1078.1.1 = { owner = MOR controller = MOR add_core = MOR remove_core = BGW }
1300.1.1 = { fort_15th = yes }

1415.8.21   = { controller = POR add_core = POR }
1415.9.1 = { owner = POR capital = "Ceuta" }
1500.1.1   = { religion = catholic }
1640.1.1   = {	
	owner = SPA
	controller = SPA
	add_core = SPA
	remove_core = POR
} # Ceuta decides to become Spanish and not Portuguese




