#1768 - Lienz

owner = GBL
controller = GBL
add_core = GBL
culture = noric
religion = druidism
base_tax = 1
base_production = 1
trade_goods = iron
base_manpower = 1
capital = "Aguntum" 
is_city = yes	
hre = no
discovered_by = ottoman
discovered_by = middle_eastern
discovered_by = muslim
discovered_by = barbarian
discovered_by = western
discovered_by = roman_group
discovered_by = eastern

395.1.17 = { controller = ROW owner = ROW add_core = ROW remove_core = ROM } # Final division of the empire
420.1.1 = { culture = austrian religion = germanic }
430.1.1 = { religion = chalcedonism }
476.9.4 = { owner = ITA controller = ITA add_core = ITA }
480.1.1 = { remove_core = ROW }
489.1.1 = { owner = GOS controller = GOS add_core = GOS remove_core = ITA }
500.1.1 = { religion = arianism }
553.1.1 = { owner = LOM controller = LOM add_core = LOM remove_core = GOS capital = "Lienz" }
591.1.1 = { owner = AVR controller = AVR add_core = AVR remove_core = LOM }
600.1.1 = { base_tax = 2 base_production = 2 religion = chalcedonism }
623.1.1 = { owner = SAZ controller = SAZ add_core = SAZ remove_core = AVR }
659.1.1 = { owner = CAR controller = CAR add_core = CAR remove_core = SAZ }
745.1.1 = { owner = BAV controller = BAV add_core = BAV remove_core = CAR }
788.1.1 = { owner = FRK controller = FRK add_core = FRK remove_core = BAV }
800.1.1 = { base_manpower = 2 }
817.1.1 = { owner = BAV controller = BAV add_core = BAV remove_core = FRK }
867.1.1 = { religion = catholic }
880.3.22 = { owner = FRE controller = FRE add_core = FRE }
911.11.10 = { owner = BAV controller = BAV add_core = BAV remove_core = FRE }
962.2.2 = { hre = yes }
976.1.1 = { owner = CAR controller = CAR add_core = CAR remove_core = BAV }
1000.1.1 = { base_tax = 3 base_production = 3 }
1200.1.1 = { base_tax = 4 base_production = 4 }
1335.5.2 = { owner = HAB controller = HAB add_core = HAB }

1452.1.1 = {
	owner = STY
	controller = STY
}
1457.11.24 = {
	owner = HAB
	controller = HAB
	remove_core = STY
}
1525.3.1 = { unrest = 6 } # Peasant Revolts
1525.9.1 = { unrest = 0 }
1801.1.1 = { base_tax = 5 }
1805.12.26 = {
	owner = BAV
	controller = BAV
	add_core = BAV
	remove_core = HAB
} # Treaty of Pressburg
1806.7.12  = { hre = no } # The Holy Roman Empire is dissolved
1809.4.9 = { revolt = { type = nationalist_rebels size = 1.5 } controller = REB } # Tyrolean rebellion
1810.1.19  = { revolt = {} controller = BAV }
1814.5.30  = {
	owner = HAB
	controller = HAB
	add_core = HAB
	remove_core = BAV
} # Treaty of Paris, ceded to the Habsburgs

1875.1.1 = { base_production = 5 }
1900.1.1   = { citysize = 17000 capital = "Spittal" remove_core = CAR }
1938.3.12  = { owner = GER controller = GER add_core = GER } # Austria annexed by Nazi Germany
1945.5.8   = { owner = HAB controller = HAB remove_core = GER }
2000.1.1 = { base_manpower = 4 }



