#223 - Granada

owner = HIS
controller = HIS
add_core = HIS
culture = iberi
religion = animism
hre = no
discovered_by = roman_group
discovered_by = eastern
discovered_by = ottoman
discovered_by = middle_eastern
discovered_by = muslim
discovered_by = barbarian
discovered_by = western
base_tax = 2
base_production = 2
trade_goods = salt
base_manpower = 1
capital = "Illiberis"
is_city = yes

320.1.1 = { religion = chalcedonism }
395.1.17 = { controller = ROW owner = ROW add_core = ROW remove_core = ROM } # Final division of the empire
409.1.1 = { owner = VAN controller = VAN add_core = VAN religion = arianism culture = vandal }
425.1.1 = { owner = ROW controller = ROW remove_core = VAN }
448.1.1 = { owner = EAL controller = EAL add_core = EAL }
450.1.1 = { remove_core = ROW }
456.1.1 = { owner = GVI controller = GVI add_core = GVI remove_core = EAL culture = gothic }
500.1.1 = { base_tax = 3 base_production = 3 }
552.1.1 = { owner = BYZ controller = BYZ add_core = BYZ religion = chalcedonism }
620.1.1 = { owner = GVI controller = GVI remove_core = BYZ }
700.1.1 = { base_manpower = 2 }
711.1.1 = { owner = UMA controller = UMA add_core = UMA remove_core = GVI capital = "Granada" }
740.1.1 = { religion = sunni fort_15th = yes }
750.1.1 = { culture = andalucian }
750.8.6 = { owner = CRD controller = CRD add_core = CRD remove_core = UMA }
900.1.1 = { base_tax = 4 base_production = 4 }
1000.1.1 = { base_manpower = 3 }
1013.1.1 = { owner = GRA controller = GRA add_core = GRA remove_core = CRD }
1090.1.1 = { owner = MOR controller = MOR add_core = MOR }
1100.1.1 = { base_tax = 5 }
1200.1.1 = { base_tax = 6 }
1238.1.1 = { owner = GRA controller = GRA add_core = GRA remove_core = MOR }
1300.1.1 = { base_manpower = 4 }

1482.7.1 = { revolt = { type = revolutionary_rebels size = 2 } controller = REB } # While his father is absent becuase of the war, prince Boabdil stages a coup and the Kingdom of Granada is split in two halves, both at war with Castilla
1484.5.1 = { revolt = {} controller = GRA } # Boabdil is captured by the christians and forced to a truce, Muhammad el Zagal returns to Granada and retakes power, extending the war with Castilla.
1492.1.2 = { owner = CAS controller = CAS add_core = CAS } # Boabdil gives the keys of the Alhambra to King Fernando, the Reconquista ends.
1499.12.1 = { unrest = 2 } # Increased pressure from the Inquisition to convert Spanish muslims
1502.2.1 = { unrest = 0 religion = catholic } # All the subjects of Castilla are forced to convert or emigrate
1516.1.23 = {
	controller = SPA
	owner = SPA
	add_core = SPA
	remove_core = CAS
} # King Fernando dies, Carlos inherits Aragon and becames co-regent of Castilla
1568.12.25 = { unrest = 15 } # Sublevation of the morisques in the kingdom of Granada.
1570.10.28 = {	unrest = 0
	culture = castillian
} # To quell the revolt, the morisques in Granada are forcefully deported to other Spanish territories
1750.1.1 = { base_production = 5 }
1775.1.1 = { base_production = 6 }
1800.1.1 = { base_production = 7 base_manpower = 5 }
1808.6.6 = { revolt = { type = pretender_rebels size = 0 } controller = REB }
1811.1.1 = { revolt = {} controller = SPA }
1812.10.1 = { revolt = { type = pretender_rebels size = 1 } controller = REB }
1813.12.11 = { revolt = {} controller = SPA }

1825.1.1 = { base_manpower = 6 }
1851.1.1 = { base_manpower = 7 }
1875.1.1 = { base_production = 8 }
1901.1.1 = { base_production = 9 }
1925.1.1 = { base_tax = 7 }
1951.1.1 = { base_manpower = 8 }
1975.1.1 = { base_tax = 8 }
2000.1.1 = { base_tax = 9 }



