#242 - Gwynedd

owner = ORV
controller = ORV
add_core = ORV
is_city = yes
culture = briton
religion = druidism
hre = no
discovered_by = roman_group
discovered_by = eastern
discovered_by = barbarian
discovered_by = western
base_tax = 1
base_production = 1
trade_goods = livestock
base_manpower = 1
capital = "Canovium"

78.1.1 = { owner = BNN controller = BNN add_core = BNN }
200.1.1 = { culture = welsh }
350.1.1 = { owner = GWY controller = GWY add_core = GWY remove_core = ORV remove_core = ROM capital = "Caernarvon" }
660.1.1 = { religion = chalcedonism }
867.1.1 = { religion = catholic }
950.1.1 = { base_tax = 2 base_production = 2 discovered_by = muslim discovered_by = ottoman }
1282.1.1 = { owner = ENG controller = ENG add_core = ENG add_core = WLS remove_core = GWY }

1399.1.1 = { unrest = 20 } # Buildup to the Welsh Revolt
1400.9.16 = { revolt = { type = nationalist_rebels size = 1 } controller = REB } # The Welsh Revolt
1415.1.1 = { unrest = 0 revolt = {} controller = ENG } # English rule is restored
1453.1.1 = { unrest = 5 } # Start of the War of the Roses
1461.6.1 = { unrest = 0 revolt = { type = revolutionary_rebels size = 2 leader = "Henry of Lancaster" } controller = REB } # Lancastrian Holdouts after Coronation of Edward IV
1467.1.1 = { revolt = {} unrest = 5 } # Rivalry between Edward IV & Warwick
1468.6.1 = { controller = ENG }
1471.1.1 = { unrest = 8 } # Unpopularity of Warwick & War with Burgundy
1471.3.1 = { revolt = { type = revolutionary_rebels size = 1 } controller = REB }
1471.5.4 = { revolt = {} unrest = 2 controller = ENG } # Murder of Henry VI & Restoration of Edward IV
1483.6.26 = { unrest = 8 } # Revulsion at Supposed Murder of the Princes in the Tower
1485.8.23 = { unrest = 0 } # Battle of Bosworth Field & the End of the War of the Roses
1707.5.12 = {	owner = GBR
	controller = GBR
	add_core = GBR
	remove_core = ENG
}
1750.1.1 = { religion = reformed }
1752.1.1 = { base_tax = 3 }
1779.1.1 = { base_tax = 5 }

1806.1.1 = { base_manpower = 2 }
1834.1.1 = { base_production = 3 }
1861.1.1 = { base_manpower = 3 }
1888.1.1 = { base_production = 4 }
1915.1.1 = { base_manpower = 4 }
1943.1.1 = { base_production = 5 }
1950.1.1 = { capital = "Rhyl" }



