#2547 - Tadmor

owner = AZA
controller = AZA
culture = aramaic
religion = hellenism
capital = "Palmyra"
trade_goods = livestock
hre = no
discovered_by = nomad_group
discovered_by = eastern_nomad_group
discovered_by = western_nomad_group
discovered_by = barbarian
discovered_by = western
discovered_by = roman_group
discovered_by = eastern
discovered_by = ottoman
discovered_by = middle_eastern
discovered_by = muslim
base_tax = 2
base_production = 2
base_manpower = 2
is_city = yes
add_core = AZA
add_core = PLM

260.1.1 = { add_core = PLM revolt = { type = nationalist_rebels size = 2 } controller = REB }
272.1.1 = { controller = ROM remove_core = PLM revolt = {} }
280.1.1 = { religion = chalcedonism }
395.1.17 = { controller = BYZ owner = BYZ add_core = BYZ remove_core = ROM } # Final division of the empire
613.1.1 = { controller = SAS }
627.1.1 = { controller = BYZ }
635.9.1 = { owner = RSD controller = RSD add_core = RSD capital = "Tadmor" }
660.1.1 = { religion = sunni culture = bedouin_arabic }
661.7.28 = { owner = UMA controller = UMA add_core = UMA remove_core = RSD remove_core = BYZ }
700.1.1 = { base_tax = 1 base_production = 1 }
750.8.6 = { owner = ABA controller = ABA add_core = ABA remove_core = UMA }
868.9.15 = { owner = EGY controller = EGY add_core = EGY }
905.1.10 = { owner = ABA controller = ABA add_core = ABA }
935.8.26 = { owner = EGY controller = EGY add_core = EGY remove_core = ABA }
945.1.1  = { owner = SYR controller = SYR add_core = SYR remove_core = EGY }
1002.1.1 = { owner = FAT controller = FAT add_core = FAT }
1073.1.1 = { owner = SEL controller = SEL add_core = SEL remove_core = FAT }
1107.1.1 = { owner = FAD controller = FAD add_core = FAD remove_core = SEL }

1515.1.1 = { discovered_by = POR }
1516.8.24 = {
	owner = TUR
	controller = TUR
	add_core = TUR
} # Part of the Ottoman Empire
1665.1.1 = { unrest = 4 }
1669.1.1 = { unrest = 2 } # Ottoman attempts to pacify unruly tribes 
1670.1.1 = { unrest = 0 }

1833.5.6   = { owner = EGY controller = EGY add_core = EGY remove_core = MAM }
1841.2.1   = { owner = TUR controller = TUR add_core = TUR remove_core = EGY }
1920.3.8   = { owner = SYR controller = SYR }
1920.7.24  = { owner = FR2 controller = FR2 add_core = FR2 remove_core = TUR }
1940.6.14  = { owner = FRV controller = FRV add_core = FRV } # Vichy France
1941.7.1   = { owner = FR2 controller = FR2 remove_core = FRV } # Taken by Free France
1946.4.17  = { owner = SYR controller = SYR remove_core = FR2 }
1958.2.22  = { owner = ARB controller = ARB add_core = ARB }
1961.9.28  = { owner = SYR controller = SYR remove_core = ARB }
2015.5.13  = { revolt = { type = nationalist_rebels size = 1 } controller = REB add_core = ISL culture = al_iraqiya_arabic }
2016.3.27  = { revolt = {} controller = SYR remove_core = ISL culture = al_suryah_arabic }
