#3134 - Sassari

owner = ILA
controller = ILA
culture = sardinian
religion = hellenism
hre = no 
discovered_by = ottoman
discovered_by = middle_eastern
discovered_by = muslim
discovered_by = roman_group
discovered_by = eastern
discovered_by = barbarian
discovered_by = western
base_tax = 1
base_production = 1
trade_goods = copper
base_manpower = 1
capital = "Olbia" 
is_city = yes
add_core = ILA

395.1.17 = { controller = ROW owner = ROW add_core = ROW remove_core = ROM } # Final division of the empire
456.1.1 = { owner = VAN controller = VAN add_core = VAN remove_core = ROW }
534.1.1 = { owner = BYZ controller = BYZ add_core = BYZ remove_core = VAN }
594.1.1 = { religion = chalcedonism }
700.1.1 = { base_tax = 2 base_production = 2 }
867.1.1 = { religion = catholic }
900.1.1 = { base_tax = 3 base_production = 3 }
1015.1.1 = { owner = PIS controller = PIS add_core = PIS remove_core = BYZ }
1100.1.1 = { base_tax = 4 base_production = 4 }
1131.1.1 = { capital = "Sassari" }
1297.1.1 = { owner = SAR controller = SAR add_core = SAR add_core = ARA remove_core = PIS }

1420.1.1 = { owner = ARA add_core = ARA controller = ARA } # Conquered by Aragon
1516.1.23 = {
	owner = SPA
	controller = SPA
	add_core = SPA
	remove_core = ARA
} # Unification of Spain
1713.4.12 = {
	owner = HAB
	controller = HAB
	add_core = HAB
	remove_core = SPA
}
1720.1.1 = {
	owner = SPI
	controller = SPI
	add_core = SPI
	remove_core = HAB
} # Kingdom of Piedmont-Sardinia
1785.1.1 = { base_production = 4 }
1796.1.1 = { controller = FRA } # French invasion
1796.4.16 = { controller = SPI } # Peace between Sardinia and France

1845.1.1 = { base_manpower = 3 }
1861.3.17  = { owner = ITA controller = ITA add_core = ITA remove_core = SPI remove_core = SAR }
2000.1.1 = { base_tax = 5 base_production = 5 }



