#321 - Cyprus

owner = AZA
controller = AZA
culture = greek
religion = hellenism
capital = "Salamis"
trade_goods = wine
hre = no
discovered_by = ottoman
discovered_by = nomad_group
discovered_by = western_nomad_group
discovered_by = middle_eastern
discovered_by = muslim
discovered_by = roman_group
discovered_by = eastern
discovered_by = barbarian
discovered_by = western
base_tax = 3
base_production = 3
base_manpower = 2
is_city = yes
add_core = AZA

115.1.1 = { revolt = { type = jewish_rebels size = 2 } controller = REB }
117.1.1 = { revolt = {} controller = ROM }
330.1.1 = { religion = chalcedonism }
350.1.1 = { capital = "Constantia" }
395.1.17 = { controller = BYZ owner = BYZ add_core = BYZ remove_core = ROM } # Final division of the empire
400.1.1 = { base_tax = 4 base_production = 4 }
600.1.1 = { base_manpower = 3 }
647.1.1 = { owner = RSD controller = RSD add_core = RSD }
661.7.28 = { owner = UMA controller = UMA add_core = UMA remove_core = RSD }
683.1.1 = { owner = BYZ controller = BYZ remove_core = UMA }
688.1.1 = { base_tax = 4 } # All taxes collected were to be divided between the Arabs and the Emperor
800.1.1 = { base_tax = 5 base_production = 5 }
867.1.1 = { religion = orthodox }
1000.1.1 = { base_tax = 6 base_production = 6 }
1185.1.1 = { owner = CYP controller = CYP add_core = CYP capital = "Nicosia" }
1191.5.1 = { owner = ENG controller = ENG add_core = ENG }
1191.8.1 = { owner = KNI controller = KNI add_core = KNI remove_core = ENG }
1192.1.1 = { owner = CYP controller = CYP remove_core = KNI }
1200.1.1 = { fort_15th = yes }

1489.1.1 = {
	owner = VEN
	controller = VEN
	add_core = VEN
}
1571.1.1 = {
	owner = TUR
	controller = TUR
	add_core = TUR
	remove_core = VEN
	religion = orthodox
} # Catholicism is expelled, the Greek orthodox religion is restored
1624.1.1 = { unrest = 7 } # Series of uprisings
1625.1.1 = { unrest = 3 }
1668.1.1 = { unrest = 0 }

1914.10.29 = { owner = GBR controller = GBR add_core = GBR add_core = CYP }
1920.4.24  = { remove_core = TUR }
1960.8.16  = { owner = CYP controller = CYP add_core = CYP remove_core = GBR }



