#4466 - Jaffa

owner = JUD
controller = JUD
culture = israeli
religion = jewish
capital = "Joppa"
trade_goods = sugar
hre = no
discovered_by = east_african
discovered_by = indian
discovered_by = asian
discovered_by = early_indian
discovered_by = nomad_group
discovered_by = eastern_nomad_group
discovered_by = western_nomad_group
discovered_by = barbarian
discovered_by = western
discovered_by = roman_group
discovered_by = eastern
discovered_by = ottoman
discovered_by = middle_eastern
discovered_by = muslim
base_tax = 2
base_production = 2
base_manpower = 2
is_city = yes
add_core = JUD

6.1.1 = { owner = AYP controller = AYP add_core = AYP }
30.1.1 = { religion = chalcedonism }
64.1.1 = { unrest = 4 } # Persecution of Jews and Christians
66.1.1 = { revolt = { type = jewish_rebels size = 1 } controller = REB } # Jewish revolt
73.1.1 = { revolt = {} controller = ROM }
90.1.1 = { unrest = 6 } # Heavier persecutions
115.1.1 = { revolt = { type = jewish_rebels size = 1 } } # Kitos war
117.1.1 = { revolt = {} }
132.1.1 = { revolt = { type = jewish_rebels size = 1 } controller = REB } # Jewish revolt
135.1.1 = { revolt = {} controller = ROM }
138.1.1 = { unrest = 4 } # Restrictions over Christian presence in the city are relaxed
269.1.1 = { add_core = PLM revolt = { type = nationalist_rebels size = 1 } controller = REB culture = aramaic }
272.1.1 = { controller = ROM remove_core = PLM revolt = {} culture = israeli }
313.1.1 = { unrest = 0 } # Christianity legalized
395.1.17 = { controller = BYZ owner = BYZ add_core = BYZ remove_core = ROM } # Final division of the empire
610.1.1 = { revolt = { type = jewish_rebels size = 1 } controller = REB } # Jewish revolt
613.1.1 = { revolt = {} controller = BYZ }
614.5.1 = { controller = SAS } # Conquered by Sassanid Persia
628.1.1 = { controller = BYZ } # Byzantine Emperor Heraclius retakes Jerusalem
637.1.1 = { owner = RSD controller = RSD add_core = RSD remove_core = BYZ capital = "Ramla" }
661.7.28 = { owner = UMA controller = UMA add_core = UMA remove_core = RSD }
720.1.1 = { culture = palestinian }
750.8.6 = { owner = ABA controller = ABA add_core = ABA remove_core = UMA }
867.1.1 = { religion = catholic }
868.9.15 = { owner = EGY controller = EGY add_core = EGY remove_core = ABA }
905.1.10 = { owner = ABA controller = ABA add_core = ABA }
935.8.26 = { owner = EGY controller = EGY add_core = EGY remove_core = ABA }
970.3.1  = { owner = FAT controller = FAT add_core = FAT remove_core = EGY }
1073.1.1 = { owner = SEL controller = SEL add_core = SEL remove_core = FAT }
1099.7.1 = { owner = KOJ controller = KOJ add_core = KOJ remove_core = SEL capital = "Jaffa" }
1268.1.1 = { owner = MAM controller = MAM add_core = MAM remove_core = KOJ }
1291.1.1 = { remove_core = KOJ }
1300.1.1 = { religion = sunni }
1377.1.1 = { revolt = { type = pretender_rebels size = 0 } controller = REB }
1382.1.1 = { revolt = {} controller = MAM }

1517.1.1 = { owner = TUR controller = TUR add_core = TUR } # Conquered by the Ottomans

1750.1.1 = { base_tax = 4 base_production = 4 base_manpower = 4 }
1775.1.1 = { base_tax = 6 base_production = 6 base_manpower = 7 }
1800.1.1 = { base_tax = 9 base_production = 8 base_manpower = 12 }
1825.1.1 = { base_tax = 13 base_production = 12 base_manpower = 14 }
1833.5.6   = { owner = EGY controller = EGY add_core = EGY remove_core = MAM }
1841.2.1   = { owner = TUR controller = TUR add_core = TUR remove_core = EGY }
1850.1.1 = { base_tax = 18 base_production = 14 base_manpower = 17 }
1875.1.1 = { base_tax = 19 base_production = 17 base_manpower = 21 }
1901.1.1 = { base_tax = 22 base_production = 20 base_manpower = 23 }
1920.3.8   = { owner = SYR controller = SYR add_core = SYR }
1920.7.24  = { owner = GBR controller = GBR add_core = GBR add_core = ISR remove_core = SYR remove_core = TUR }
1925.1.1 = { base_tax = 24 base_production = 22 base_manpower = 25 }
1948.5.14  = { owner = ISR controller = ISR remove_core = GBR religion = jewish culture = israeli }
1950.1.1 = { base_tax = 26 base_production = 23 base_manpower = 27 }
1975.1.1 = { base_tax = 28 base_production = 27 base_manpower = 29 }
1988.11.15 = { capital = "Jerusalem" }
2000.1.1 = { base_tax = 30 base_production = 30 }
