#240 - Marches

owner = CRV
controller = CRV
culture = briton
religion = druidism
hre = no
discovered_by = roman_group
discovered_by = eastern
discovered_by = barbarian
discovered_by = western
base_tax = 1
base_production = 1
trade_goods = iron
base_manpower = 1
capital = "Letocetum"
is_city = yes
add_core = CRV

47.1.1 = { owner = BNN controller = BNN add_core = BNN }
300.1.1 = { culture = welsh }
380.1.1 = { add_core = ELM }
395.1.17 = { controller = ROW owner = ROW add_core = ROW remove_core = ROM } # Final division of the empire
410.1.1 = { owner = ELM controller = ELM add_core = ELM remove_core = ROW capital = "Coventry" }
527.1.1 = { owner = MRC controller = MRC add_core = MRC remove_core = ELM religion = germanic culture = anglo_saxon }
640.1.1 = { religion = chalcedonism }
650.1.1 = { base_tax = 2 base_production = 2 }
655.11.15 = { owner = NOL controller = NOL add_core = NOL }
658.1.1 = { owner = MRC controller = MRC remove_core = NOL }
#829.1.1 = { owner = WSX controller = WSX add_core = WSX }
#830.1.1 = { owner = MRC controller = MRC remove_core = WSX }
850.1.1 = { base_manpower = 2 }
867.1.1 = { religion = catholic }
883.1.1 = { add_core = WSX }
918.12.4 = { owner = WSX controller = WSX }
927.1.1 = { owner = ENG controller = ENG add_core = ENG remove_core = WSX }
950.1.1 = { discovered_by = muslim discovered_by = ottoman }
1000.1.1 = { remove_core = MRC }
1050.1.1 = { base_tax = 3 base_production = 3 }
1066.12.25 = { culture = english }

1453.1.1 = { unrest = 5 } # Start of the War of the Roses
1461.3.1 = { unrest = 0 revolt = { type = pretender_rebels size = 1 } controller = REB } # Coventry's Switch to the Yorkists
1461.6.28 = { revolt = {} unrest = 2 controller = ENG } # Coronation of Edward IV
1467.1.1 = { unrest = 5 } # Rivalry between Edward IV & Warwick
1470.9.1 = { unrest = 0 revolt = { type = pretender_rebels size = 1 } controller = REB }
1470.10.6 = { revolt = {} controller = ENG } # Readeption of Henry VI
1471.1.1 = { unrest = 8 } # Unpopularity of Warwick & War with Burgundy
1471.3.15 = { unrest = 0 revolt = { type = pretender_rebels size = 1 } controller = REB } # Capture of Warwick Castle
1471.5.4 = { revolt = {} unrest = 2 controller = ENG } # Murder of Henry VI & Restoration of Edward IV
1483.6.26 = { unrest = 8 } # Revulsion at Supposed Murder of the Princes in the Tower
1485.8.23 = { unrest = 0 } # Battle of Bosworth Field & the End of the War of the Roses
1548.1.1 = { religion = protestant }
1585.1.1 = { religion = reformed }
1645.12.17 = { revolt = { type = revolutionary_rebels size = 0 } controller = REB }
1646.5.5 = { revolt = {} controller = ENG } # End of First English Civil War
1707.5.12 = {	owner = GBR
	controller = GBR
	add_core = GBR
	remove_core = ENG
}

1750.1.1 = { base_tax = 7 base_production = 9 }
1775.1.1 = { base_tax = 8 base_production = 10 base_manpower = 6 }
1800.1.1 = { base_tax = 9 base_production = 11 base_manpower = 9 }
1825.1.1 = { base_tax = 11 base_production = 13 base_manpower = 10 }
1850.1.1 = { base_production = 14 base_manpower = 13 }
1875.1.1 = { base_production = 17 base_manpower = 15 }
1900.1.1 = { base_tax = 13 base_production = 19 base_manpower = 16 }
1925.1.1 = { base_tax = 17 base_production = 20 }
1950.1.1 = { base_tax = 18 base_production = 22 base_manpower = 17 }
1975.1.1 = { base_tax = 22 base_manpower = 20 }



