#462 - Mingrelia

owner = PON
controller = PON
add_core = PON
is_city = yes
culture = georgian
religion = hellenism
capital = "Phasis"
trade_goods = wine
hre = no
discovered_by = nomad_group
discovered_by = eastern_nomad_group
discovered_by = western_nomad_group
discovered_by = barbarian
discovered_by = western
discovered_by = roman_group
discovered_by = eastern
discovered_by = ottoman
discovered_by = middle_eastern
discovered_by = muslim
base_tax = 2
base_production = 2
base_manpower = 2
center_of_trade = 1

62.1.1 = { owner = AZA controller = AZA add_core = AZA }
80.1.1 = { remove_core = PON }
395.1.17 = { controller = BYZ owner = BYZ add_core = BYZ remove_core = ROM } # Final division of the empire
400.1.1 = { capital = "Archaeopolis" }
456.1.1 = { owner = LAZ controller = LAZ add_core = LAZ remove_core = BYZ }
460.1.1 = { religion = chalcedonism }
697.1.1 = { owner = IBE controller = IBE add_core = IBE add_core = UMA }
750.1.1 = { add_core = ABA remove_core = UMA }
775.1.1 = { owner = ABK controller = ABK add_core = ABK remove_core = IBE remove_core = ABA }
867.1.1 = { religion = orthodox }
1008.1.1 = { owner = GEO controller = GEO add_core = GEO remove_core = ABK capital = "Batumi" }
1236.1.1 = { owner = KHA controller = KHA add_core = KHA }
1260.1.1 = { owner = GEO controller = GEO add_core = GEO remove_core = KHA }
1442.1.1 = { owner = IME controller = IME add_core = IME }

1458.1.1  = { revolt_risk = 5 } # Safavid campaign against Georgia
1460.1.1  = { revolt_risk = 0 } # Defeated by Shirwan Shah
1614.1.1  = { revolt_risk = 6 } # Overrun several times by Persian troops
1617.1.1  = { revolt_risk = 2 } # Thousands were killed or resettled in Iran
1625.1.1  = { revolt_risk = 8 } # Insurrection, headed by Giorgi Saakadze
1630.1.1  = { revolt_risk = 0 }
1659.1.1  = { revolt_risk = 4 } # Anti-Ottoman revolts
1665.1.1  = { revolt_risk = 0 }
1810.2.20 = {	owner = RUS
		controller = RUS
		add_core = RUS
	    } # Annexed by Russia

1918.5.26  = { owner = GEO controller = GEO }
1921.2.25  = { owner = RUS controller = RUS }
1922.12.30 = { owner = SOV controller = SOV add_core = SOV remove_core = RUS }
1991.4.9   = { owner = GEO controller = GEO remove_core = SOV remove_core = RUS }


