#206 - Galicia

owner = HIS
controller = HIS
add_core = HIS
culture = galician
religion = druidism
hre = no
discovered_by = ottoman
discovered_by = middle_eastern
discovered_by = muslim
discovered_by = barbarian
discovered_by = western
discovered_by = roman_group
discovered_by = eastern
base_tax = 1
base_production = 1
trade_goods = fish
base_manpower = 1
capital = "Duos Pontes" 
is_city = yes

395.1.17 = { controller = ROW owner = ROW add_core = ROW remove_core = ROM } # Final division of the empire
409.6.1 = { owner = EAL controller = EAL add_core = EAL religion = germanic }
450.1.1 = { remove_core = ROW }
466.1.1 = { religion = arianism }
561.5.1 = { religion = chalcedonism }
584.1.1 = { owner = GVI controller = GVI add_core = GVI add_core = GAL remove_core = EAL capital = "Pontevedra" }
650.1.1 = { base_tax = 2 base_production = 2 }
711.1.1 = { owner = UMA controller = UMA add_core = UMA remove_core = GVI }
739.1.1 = { owner = ASU controller = ASU add_core = ASU remove_core = UMA }
850.1.1 = { base_manpower = 2 }
867.1.1 = { religion = catholic }
910.12.10 = { owner = GAL controller = GAL remove_core = ASU }
914.1.1 = { owner = LON controller = LON add_core = LON }
1050.1.1 = { base_tax = 3 base_production = 3 }
1065.6.1 = { owner = GAL controller = GAL }
1072.1.1 = { owner = LON controller = LON }
1230.9.23 = { owner = CAS controller = CAS add_core = CAS remove_core = LON }

1467.1.1 = { unrest = 4 } # Second war of the "irmandiņos"
1470.1.1 = { unrest = 0 } # End of the Second war of the "irmandiņos"
1475.6.2 = { controller = POR }
1476.3.2 = { controller = CAS }
1479.1.1 = { remove_core = GAL }
1516.1.23 = {	controller = SPA
	owner = SPA
	add_core = SPA
} # King Fernando dies, Carlos inherits Aragon and becomes co-regent of Castilla
1713.4.11 = { remove_core = CAS }
1808.6.6 = { revolt = { type = pretender_rebels size = 2 leader = "Fernando" } controller = REB }
1809.1.1 = { revolt = {} controller = SPA }
1812.10.1 = { revolt = { type = pretender_rebels size = 2 leader = "Fernando" } controller = REB }
1813.12.11 = { revolt = {} controller = SPA }



